btb_file_tb.vcd
$date
    Feb 10, 2019  00:25:53
$end
$version
    TOOL:	ncsim(64)	15.20-s051
$end
$timescale
    1 ns
$end

$scope module btb_file_tb $end
$var reg       1 !    clk  $end
$var reg       1 "    rst  $end
$var reg       3 #    read_index [2:0] $end
$var reg       3 $    update_index [2:0] $end
$var reg       3 %    write_index [2:0] $end
$var reg      128 &    write_set [127:0] $end
$var reg       1 '    write_en  $end
$var wire     128 (    read_set [127:0] $end
$var wire     128 )    update_set [127:0] $end
$var integer  32 *    errors  $end

$scope module dut $end
$var wire      1 +    clk  $end
$var wire      1 ,    rst  $end
$var wire      3 -    read_index [2:0] $end
$var wire      3 .    update_index [2:0] $end
$var wire      3 /    write_index [2:0] $end
$var wire     128 0    write_set [127:0] $end
$var wire      1 1    write_en  $end
$var wire     128 (    read_set [127:0] $end
$var wire     128 )    update_set [127:0] $end
$var integer  32 2    i  $end
$upscope $end

$upscope $end

$enddefinitions $end
$dumpvars
0!
1"
b11 #
b11 $
b11 %
b0 &
0'
bx (
bx )
b0 *
0+
1,
b11 -
b11 .
b11 /
b0 0
01
bx 2
$end
#5
1!
1+
b0 2
b1 2
b10 2
b11 2
b100 2
b101 2
b110 2
b111 2
b1000 2
b0 (
b0 )
#10
0!
0+
#15
1!
1+
#20
0!
0"
0,
0+
#22
b100 $
b11011110101011011011111011101111000000010010001101000101011001111000100110101011110011011110111100000000000000000001000100010001 &
1'
11
b11011110101011011011111011101111000000010010001101000101011001111000100110101011110011011110111100000000000000000001000100010001 0
b100 .
b11011110101011011011111011101111000000010010001101000101011001111000100110101011110011011110111100000000000000000001000100010001 (
#25
1!
1+
#26
0'
01
#28
b1 %
b10001000100010010001000100010001100110011001101000100010001000101010101010101011001100110011001110111011101111000100010001000 &
1'
11
b10001000100010010001000100010001100110011001101000100010001000101010101010101011001100110011001110111011101111000100010001000 0
b1 /
#30
0!
0+
#35
1!
1+
#36
0'
b1 #
b1 -
01
b10001000100010010001000100010001100110011001101000100010001000101010101010101011001100110011001110111011101111000100010001000 (
#38
b0 %
b0 #
b1010101111001101 &
1'
11
b1010101111001101 0
b0 -
b0 /
b1010101111001101 (
#40
0!
0+
#45
1!
1+
#46
0'
01
#47
b1 #
b1 -
b10001000100010010001000100010001100110011001101000100010001000101010101010101011001100110011001110111011101111000100010001000 (
#48
b11 #
b11 -
b11011110101011011011111011101111000000010010001101000101011001111000100110101011110011011110111100000000000000000001000100010001 (
